; Engine configuration file.
; It's best edited using the editor UI and not directly,
; since the parameters that go here are not all obvious.
;
; Format:
;   [section] ; section goes between []
;   param=value ; assign values to parameters

config_version=4

_global_script_classes=[ {
"base": "KinematicBody2D",
"class": "Interactable",
"language": "GDScript",
"path": "res://src/interactables/Interactable.gd"
} ]
_global_script_class_icons={
"Interactable": ""
}

[application]

config/name="SotS"
run/main_scene="res://scenes/root/TitleScreen.tscn"
config/icon="res://icon.png"

[autoload]

DisplayManager="*res://scripts/controllers/singletons/DisplayManager.gd"
GlobalController="*res://scripts/controllers/singletons/GlobalController.gd"
DialogController="*res://scripts/controllers/singletons/DialogController.gd"

[display]

window/size/width=160
window/size/height=144
window/stretch/mode="viewport"

[importer_defaults]

texture={
"compress/bptc_ldr": 0,
"compress/hdr_mode": 0,
"compress/lossy_quality": 0.7,
"compress/mode": 0,
"compress/normal_map": 0,
"detect_3d": true,
"flags/anisotropic": false,
"flags/filter": false,
"flags/mipmaps": false,
"flags/repeat": 0,
"flags/srgb": 2,
"process/HDR_as_SRGB": false,
"process/fix_alpha_border": true,
"process/invert_color": false,
"process/premult_alpha": false,
"size_limit": 0,
"stream": false,
"svg/scale": 1.0
}

[input]

ui_accept={
"deadzone": 0.5,
"events": [  ]
}
ui_select={
"deadzone": 0.5,
"events": [  ]
}
ui_cancel={
"deadzone": 0.5,
"events": [  ]
}
ui_focus_next={
"deadzone": 0.5,
"events": [  ]
}
ui_focus_prev={
"deadzone": 0.5,
"events": [  ]
}
ui_left={
"deadzone": 0.5,
"events": [  ]
}
ui_right={
"deadzone": 0.5,
"events": [  ]
}
ui_up={
"deadzone": 0.5,
"events": [  ]
}
ui_down={
"deadzone": 0.5,
"events": [  ]
}
ui_page_up={
"deadzone": 0.5,
"events": [  ]
}
ui_page_down={
"deadzone": 0.5,
"events": [  ]
}
ui_home={
"deadzone": 0.5,
"events": [  ]
}
ui_end={
"deadzone": 0.5,
"events": [  ]
}
start={
"deadzone": 0.5,
"events": [ Object(InputEventKey,"resource_local_to_scene":false,"resource_name":"","device":0,"alt":false,"shift":false,"control":false,"meta":false,"command":false,"pressed":false,"scancode":16777221,"unicode":0,"echo":false,"script":null)
 ]
}
select={
"deadzone": 0.5,
"events": [ Object(InputEventKey,"resource_local_to_scene":false,"resource_name":"","device":0,"alt":false,"shift":false,"control":false,"meta":false,"command":false,"pressed":false,"scancode":16777237,"unicode":0,"echo":false,"script":null)
 ]
}
a={
"deadzone": 0.5,
"events": [ Object(InputEventKey,"resource_local_to_scene":false,"resource_name":"","device":0,"alt":false,"shift":false,"control":false,"meta":false,"command":false,"pressed":false,"scancode":71,"unicode":0,"echo":false,"script":null)
 ]
}
b={
"deadzone": 0.5,
"events": [ Object(InputEventKey,"resource_local_to_scene":false,"resource_name":"","device":0,"alt":false,"shift":false,"control":false,"meta":false,"command":false,"pressed":false,"scancode":72,"unicode":0,"echo":false,"script":null)
 ]
}
left={
"deadzone": 0.5,
"events": [ Object(InputEventKey,"resource_local_to_scene":false,"resource_name":"","device":0,"alt":false,"shift":false,"control":false,"meta":false,"command":false,"pressed":false,"scancode":65,"unicode":0,"echo":false,"script":null)
 ]
}
right={
"deadzone": 0.5,
"events": [ Object(InputEventKey,"resource_local_to_scene":false,"resource_name":"","device":0,"alt":false,"shift":false,"control":false,"meta":false,"command":false,"pressed":false,"scancode":68,"unicode":0,"echo":false,"script":null)
 ]
}
up={
"deadzone": 0.5,
"events": [ Object(InputEventKey,"resource_local_to_scene":false,"resource_name":"","device":0,"alt":false,"shift":false,"control":false,"meta":false,"command":false,"pressed":false,"scancode":87,"unicode":0,"echo":false,"script":null)
 ]
}
down={
"deadzone": 0.5,
"events": [ Object(InputEventKey,"resource_local_to_scene":false,"resource_name":"","device":0,"alt":false,"shift":false,"control":false,"meta":false,"command":false,"pressed":false,"scancode":83,"unicode":0,"echo":false,"script":null)
 ]
}
quit_game={
"deadzone": 0.5,
"events": [ Object(InputEventKey,"resource_local_to_scene":false,"resource_name":"","device":0,"alt":false,"shift":false,"control":false,"meta":false,"command":false,"pressed":false,"scancode":16777217,"unicode":0,"echo":false,"script":null)
 ]
}

[rendering]

environment/default_clear_color=Color( 1, 1, 1, 1 )
