[gd_resource type="DynamicFont" load_steps=2 format=2]

[ext_resource path="res://resources/fonts/Early GameBoy.ttf" type="DynamicFontData" id=1]

[resource]
size = 8
extra_spacing_top = -1
extra_spacing_bottom = -1
extra_spacing_space = 4
font_data = ExtResource( 1 )
