[gd_scene load_steps=4 format=2]

[ext_resource path="res://resources/tilesets/TownTileSet.tres" type="TileSet" id=1]
[ext_resource path="res://src/interactables/npc.tscn" type="PackedScene" id=2]
[ext_resource path="res://src/maps/MapLink.tscn" type="PackedScene" id=3]

[node name="TileMap" type="TileMap"]
tile_set = ExtResource( 1 )
cell_size = Vector2( 16, 16 )
collision_use_kinematic = true
format = 1
tile_data = PoolIntArray( 0, 0, 65537, 1, 0, 65537, 2, 0, 65537, 3, 0, 65537, 4, 0, 65537, 5, 0, 65537, 6, 0, 65537, 7, 0, 65537, 8, 0, 65537, 9, 0, 65537, 10, 0, 65537, 11, 0, 65537, 12, 0, 65537, 13, 0, 65537, 14, 0, 65537, 15, 0, 65537, 16, 0, 65537, 17, 0, 65537, 18, 0, 65537, 19, 0, 65537, 65536, 0, 65537, 65537, 0, 65537, 65538, 0, 65537, 65539, 0, 65537, 65540, 0, 65537, 65541, 0, 65537, 65542, 0, 65537, 65543, 0, 65537, 65544, 0, 65537, 65545, 0, 65537, 65546, 0, 65537, 65547, 0, 65537, 65548, 0, 65537, 65549, 0, 65537, 65550, 0, 65537, 65551, 0, 65537, 65552, 0, 65537, 65553, 0, 65537, 65554, 0, 65537, 65555, 0, 65537, 131072, 0, 65537, 131073, 0, 65537, 131074, 0, 65537, 131075, 0, 65537, 131076, 0, 65537, 131077, 0, 65537, 131078, 0, 65537, 131079, 0, 65537, 131080, 0, 65537, 131081, 0, 65537, 131082, 0, 65537, 131083, 0, 65537, 131084, 0, 65537, 131085, 0, 65537, 131086, 0, 65537, 131087, 0, 65537, 131088, 0, 65537, 131089, 0, 65537, 131090, 0, 65537, 131091, 0, 65537, 196608, 0, 65537, 196609, 0, 65537, 196610, 0, 65537, 196611, 0, 65537, 196612, 0, 65537, 196613, 0, 65537, 196614, 0, 65537, 196615, 0, 65537, 196616, 0, 65537, 196617, 0, 65537, 196618, 0, 65537, 196619, 0, 65537, 196620, 0, 65537, 196621, 0, 65537, 196622, 0, 65537, 196623, 0, 65537, 196624, 0, 65537, 196625, 0, 65537, 196626, 0, 65537, 196627, 0, 65537, 262144, 0, 65537, 262145, 0, 65537, 262146, 0, 65537, 262147, 0, 65537, 262148, 0, 65537, 262149, 0, 65537, 262150, 0, 65537, 262151, 0, 65537, 262152, 0, 65537, 262153, 0, 65537, 262154, 0, 65537, 262155, 0, 65537, 262156, 0, 65537, 262157, 0, 65537, 262158, 0, 65537, 262159, 0, 65537, 262160, 0, 65537, 262161, 0, 65537, 262162, 0, 65537, 262163, 0, 65537, 327680, 0, 65537, 327681, 0, 65537, 327682, 0, 65537, 327683, 0, 65537, 327684, 0, 65537, 327685, 0, 65537, 327686, 0, 65537, 327687, 0, 65537, 327688, 0, 65537, 327689, 0, 65537, 327690, 0, 65537, 327691, 0, 65537, 327692, 0, 65537, 327693, 0, 65537, 327694, 0, 65537, 327695, 0, 65537, 327696, 0, 65537, 327697, 0, 65537, 327698, 0, 65537, 327699, 0, 65537, 393216, 0, 65537, 393217, 0, 65537, 393218, 0, 65537, 393219, 0, 65537, 393220, 0, 65537, 393221, 0, 65537, 393222, 2, 0, 393223, 2, 1, 393224, 2, 2, 393225, 0, 65537, 393226, 0, 65537, 393227, 0, 65537, 393228, 0, 65537, 393229, 0, 65537, 393230, 0, 65537, 393231, 0, 65537, 393232, 0, 65537, 393233, 0, 65537, 393234, 0, 65537, 393235, 0, 65537, 458752, 0, 65537, 458753, 0, 65537, 458754, 0, 65537, 458755, 0, 65537, 458756, 0, 65537, 458757, 0, 65537, 458758, 2, 65536, 458759, 2, 65537, 458760, 2, 65538, 458761, 0, 65537, 458762, 0, 65537, 458763, 0, 65537, 458764, 0, 65537, 458765, 0, 65537, 458766, 0, 65537, 458767, 0, 65537, 458768, 0, 65537, 458769, 0, 65537, 458770, 0, 65537, 458771, 0, 65537, 524288, 0, 65537, 524289, 0, 65537, 524290, 0, 65537, 524291, 0, 65537, 524292, 0, 65537, 524293, 0, 65537, 524294, 2, 131072, 524295, 2, 131073, 524296, 2, 131074, 524297, 0, 65537, 524298, 0, 65537, 524299, 0, 65537, 524300, 0, 65537, 524301, 0, 65537, 524302, 0, 65537, 524303, 0, 65537, 524304, 0, 65537, 524305, 0, 65537, 524306, 0, 65537, 524307, 0, 65537, 589824, 0, 65537, 589825, 0, 65537, 589826, 0, 65537, 589827, 0, 65537, 589828, 0, 65537, 589829, 0, 65537, 589830, 0, 65537, 589831, 0, 65537, 589832, 0, 65537, 589833, 0, 65537, 589834, 0, 65537, 589835, 0, 65537, 589836, 0, 65537, 589837, 0, 65537, 589838, 0, 65537, 589839, 0, 65537, 589840, 0, 65537, 589841, 0, 65537, 589842, 0, 65537, 589843, 0, 65537, 655360, 0, 65537, 655361, 0, 65537, 655362, 0, 65537, 655363, 0, 65537, 655364, 0, 65537, 655365, 0, 65537, 655366, 0, 65537, 655367, 0, 65537, 655368, 0, 65537, 655369, 0, 65537, 655370, 0, 65537, 655371, 0, 65537, 655372, 0, 65537, 655373, 0, 65537, 655374, 0, 65537, 655375, 0, 65537, 655376, 0, 65537, 655377, 0, 65537, 655378, 0, 65537, 655379, 0, 65537, 720896, 0, 65537, 720897, 0, 65537, 720898, 0, 65537, 720899, 0, 65537, 720900, 0, 65537, 720901, 0, 65537, 720902, 0, 65537, 720903, 0, 65537, 720904, 0, 65537, 720905, 0, 65537, 720906, 0, 65537, 720907, 0, 65537, 720908, 0, 65537, 720909, 0, 65537, 720910, 0, 65537, 720911, 0, 65537, 720912, 0, 65537, 720913, 0, 65537, 720914, 0, 65537, 720915, 0, 65537, 786432, 0, 65537, 786433, 0, 65537, 786434, 0, 65537, 786435, 0, 65537, 786436, 0, 65537, 786437, 0, 65537, 786438, 0, 65537, 786439, 0, 65537, 786440, 0, 65537, 786441, 0, 65537, 786442, 0, 65537, 786443, 0, 65537, 786444, 0, 65537, 786445, 0, 65537, 786446, 0, 65537, 786447, 0, 65537, 786448, 0, 65537, 786449, 0, 65537, 786450, 0, 65537, 786451, 0, 65537, 851968, 0, 65537, 851969, 0, 65537, 851970, 0, 65537, 851971, 0, 65537, 851972, 0, 65537, 851973, 0, 65537, 851974, 0, 65537, 851975, 0, 65537, 851976, 0, 65537, 851977, 0, 65537, 851978, 0, 65537, 851979, 0, 65537, 851980, 0, 65537, 851981, 0, 65537, 851982, 0, 65537, 851983, 0, 65537, 851984, 0, 65537, 851985, 1, 0, 851986, 1, 1, 851987, 1, 1, 917504, 0, 65537, 917505, 0, 65537, 917506, 0, 65537, 917507, 1, 0, 917508, 1, 1, 917509, 1, 1, 917510, 1, 1, 917511, 1, 1, 917512, 1, 1, 917513, 1, 1, 917514, 1, 1, 917515, 1, 1, 917516, 1, 2, 917517, 0, 65537, 917518, 0, 65537, 917519, 1, 0, 917520, 1, 1, 917521, 1, 65537, 917522, 1, 65537, 917523, 1, 65537, 983040, 1, 1, 983041, 1, 1, 983042, 1, 1, 983043, 1, 65537, 983044, 1, 65537, 983045, 1, 65537, 983046, 1, 65537, 983047, 1, 65537, 983048, 1, 65537, 983049, 1, 65537, 983050, 1, 65537, 983051, 1, 65537, 983052, 1, 65537, 983053, 1, 1, 983054, 1, 1, 983055, 1, 65537, 983056, 1, 65537, 983057, 1, 65537, 983058, 1, 65537, 983059, 1, 65537, 1048576, 1, 65537, 1048577, 1, 65537, 1048578, 1, 65537, 1048579, 1, 65537, 1048580, 1, 65537, 1048581, 1, 65537, 1048582, 1, 65537, 1048583, 1, 65537, 1048584, 1, 65537, 1048585, 1, 65537, 1048586, 1, 65537, 1048587, 1, 65537, 1048588, 1, 65537, 1048589, 1, 65537, 1048590, 1, 65537, 1048591, 1, 65537, 1048592, 1, 65537, 1048593, 1, 65537, 1048594, 1, 65537, 1048595, 1, 65537, 1114112, 1, 65537, 1114113, 1, 65537, 1114114, 1, 65537, 1114115, 1, 65537, 1114116, 1, 65537, 1114117, 1, 65537, 1114118, 1, 65537, 1114119, 1, 65537, 1114120, 1, 65537, 1114121, 1, 65537, 1114122, 1, 65537, 1114123, 1, 65537, 1114124, 1, 65537, 1114125, 1, 65537, 1114126, 1, 65537, 1114127, 1, 65537, 1114128, 1, 65537, 1114129, 1, 65537, 1114130, 1, 65537, 1114131, 1, 65537 )

[node name="NPC" parent="." instance=ExtResource( 2 )]
position = Vector2( 192, 152 )

[node name="Node2D" parent="." instance=ExtResource( 3 )]
position = Vector2( 120, 136 )
targetScenePath = "res://src/maps/towns/testTown/shop.tscn"
uniqueName = "town-shop"
