[gd_scene load_steps=3 format=2]

[ext_resource path="res://src/player/Player.gd" type="Script" id=1]
[ext_resource path="res://resources/spriteFrames/PlayerSpriteFrames.tres" type="SpriteFrames" id=2]

[node name="Player" type="KinematicBody2D"]
position = Vector2( 112, 88 )
script = ExtResource( 1 )
__meta__ = {
"_edit_group_": true
}

[node name="CollisionPolygon2D" type="CollisionPolygon2D" parent="."]
polygon = PoolVector2Array( -3, 7.9, 3, 7.9, 7.9, 3, 7.9, -3, 3, -7.9, -3, -7.9, -7.9, -3, -7.9, 3 )

[node name="AnimatedSprite" type="AnimatedSprite" parent="."]
frames = ExtResource( 2 )

[node name="Camera2D" type="Camera2D" parent="."]
current = true
smoothing_enabled = true
smoothing_speed = 8.0
drag_margin_left = 0.1
drag_margin_top = 0.1
drag_margin_right = 0.1
drag_margin_bottom = 0.1

[node name="InteractionArea" type="Area2D" parent="."]
position = Vector2( 0, 16 )
scale = Vector2( 0.5, 1.5 )

[node name="CollisionPolygon2D" type="CollisionPolygon2D" parent="InteractionArea"]
polygon = PoolVector2Array( -8, 8, 8, 8, 8, -8, -8, -8 )
