[gd_scene load_steps=4 format=2]

[ext_resource path="res://textBox_styleBox.tres" type="StyleBox" id=1]
[ext_resource path="res://src/components/BaseMenu.gd" type="Script" id=2]
[ext_resource path="res://resources/images/singles/sprSelectionCursor2.png" type="Texture" id=3]

[node name="PanelContainer" type="PanelContainer"]
margin_left = 8.0
margin_top = 8.0
margin_right = 40.0
margin_bottom = 32.0
custom_styles/panel = ExtResource( 1 )
script = ExtResource( 2 )

[node name="VBoxContainer" type="VBoxContainer" parent="."]
margin_left = 8.0
margin_top = 8.0
margin_right = 24.0
margin_bottom = 16.0
custom_constants/separation = 0

[node name="CursorSprite" type="Sprite" parent="."]
position = Vector2( 0, 8 )
texture = ExtResource( 3 )
centered = false
[connection signal="resized" from="." to="." method="_on_PanelContainer_resized"]
