[gd_scene load_steps=3 format=2]

[ext_resource path="res://src/maps/MapLink.gd" type="Script" id=1]

[sub_resource type="RectangleShape2D" id=1]
extents = Vector2( 8, 1 )

[node name="MapLink" type="Node2D" groups=[
"MAP_LINK",
]]
script = ExtResource( 1 )

[node name="Area2D" type="Area2D" parent="."]
position = Vector2( 0, -8 )

[node name="CollisionShape2D" type="CollisionShape2D" parent="Area2D"]
shape = SubResource( 1 )

[node name="SpawnPoint" type="Node2D" parent="."]
position = Vector2( 0, 4 )
[connection signal="body_entered" from="Area2D" to="." method="_on_Area2D_body_entered"]
